{
    "load_model": false,
    "model_path": "results/lcw/2024_03_08__17_31_06/model.keras",
    "dataset": "mnist",
    "sample_amount": 70000,
    "latent_dim": 24,
    "noise_dim": 24,
    "max_epochs": 500,
    "epochs": 69,
    "batch_size": 128,
    "patience": 5,
    "learning_rate": 0.001,
    "results_dir": "results/",
    "model_type": "cw2",
    "architecture_type": "cw2",
    "bias": true,
    "batch_norm": true,
    "tsne_amount": 500,
    "perplexity": 10,
    "notes": "This was done using the silverman rule of thumb different from the paper with higher lr",
    "save_dir": "results/cw2/2024_03_26__11_58_57/",
    "stddev": 78.6543736268941
}