{
    "load_model": false,
    "model_path": "results/lcw/2024_03_08__17_31_06/model.keras",
    "dataset": "mnist",
    "sample_amount": 70000,
    "latent_dim": 24,
    "noise_dim": 24,
    "max_epochs": 200,
    "batch_size": 128,
    "patience": 5,
    "learning_rate": 0.0001,
    "results_dir": "results/",
    "model_type": "cw2",
    "architecture_type": "standard",
    "bias": true,
    "batch_norm": true,
    "tsne_amount": 500,
    "perplexity": 10,
    "save_dir": "results/cw2/2024_03_20__03_06_54/",
    "epochs": 200
}